1 1 0 0 0 0 0 0 0 1 1 1 0 1 0 0 1 1 0 0 1 1 0 1 1 1 
0 0 1 1 0 1 0 1 1 1 0 1 0 0 0 1 0 1 1 0 1 1 1 0 0 0 
0 1 1 1 0 1 0 1 0 1 0 0 1 0 1 1 0 1 1 0 0 0 0 1 0 0 
0 1 0 1 0 0 1 1 1 1 0 1 0 0 1 0 1 1 0 1 1 1 0 0 0 0 
0 0 0 0 1 1 0 1 0 1 1 1 0 1 0 0 0 0 0 0 0 1 0 0 1 0 
0 0 0 1 0 1 1 0 1 1 1 0 0 0 0 0 1 0 0 1 1 1 0 0 1 1 
1 0 1 0 1 1 1 0 1 1 1 0 0 1 0 1 0 1 0 0 0 1 0 0 1 1 
1 0 1 0 0 1 0 1 0 0 0 1 1 1 1 0 0 1 1 1 1 0 1 0 0 1 
1 0 1 1 0 0 0 1 0 0 0 1 1 0 0 0 0 0 1 0 0 0 1 1 1 0 
1 0 0 0 1 1 0 1 0 1 0 1 0 1 1 0 0 0 1 0 0 0 1 0 0 0 
0 0 0 0 0 0 0 0 0 0 1 0 1 1 0 1 1 0 0 1 1 1 1 0 0 0 
0 1 1 0 1 0 0 0 0 1 0 0 1 1 1 1 1 0 0 0 0 0 0 1 0 1 
1 1 0 0 0 0 0 0 0 1 0 0 0 0 0 1 1 1 0 1 1 0 0 1 1 0 
0 1 1 0 1 0 0 1 1 1 1 0 1 0 0 0 0 0 0 1 0 0 1 0 0 1 
0 0 1 1 0 0 0 0 1 0 0 1 1 1 1 1 1 0 1 0 1 1 0 0 1 1 
0 1 1 0 0 0 0 0 1 0 0 0 1 1 0 0 0 0 0 1 0 1 1 1 1 0 
1 0 1 0 1 0 1 0 1 0 0 0 0 1 1 1 0 0 1 0 0 0 0 1 0 0 
0 0 0 0 0 0 0 1 0 0 0 1 1 0 0 1 1 0 1 0 0 1 0 1 1 1 
1 0 1 1 1 0 0 0 0 0 1 1 1 0 0 0 0 0 1 0 0 0 1 0 1 1 
0 1 1 0 0 0 1 0 0 1 1 1 1 0 0 0 1 0 0 0 0 0 1 0 0 0 
0 0 1 1 1 0 0 1 1 1 1 1 0 1 0 0 0 0 0 0 0 1 1 1 1 1 
0 0 0 1 1 1 0 1 1 0 1 1 1 0 0 0 1 0 0 1 1 1 0 1 0 1 
0 0 0 1 0 1 1 0 0 1 1 0 0 1 0 1 1 1 0 0 0 1 1 1 0 0 
0 0 1 0 1 0 0 0 1 1 1 0 1 0 1 1 1 1 1 1 1 1 1 1 0 1 
1 0 0 1 0 1 0 1 1 0 0 1 0 0 0 1 1 1 0 0 0 1 0 1 0 1 
1 1 1 1 0 1 0 0 1 1 0 1 0 1 0 1 0 1 0 0 0 0 1 1 1 1 
100
o 9789
x 11784
n 10257
l 13859
v 2794
b 9633
m 4159
a 23516
a 13668
j 31963
k 23480
u 31525
a 16673
f 29655
v 23733
m 4341
k 29626
z 26110
m 31441
h 31427
f 5998
d 30840
m 21899
o 11532
c 26014
s 22710
j 30408
z 31185
j 335
a 2793
g 5454
l 26390
v 427
g 18568
o 26442
t 5476
i 3200
n 28367
c 1227
n 13895
n 192
s 32058
w 23108
d 4817
v 12543
d 9229
l 11022
d 8726
k 11768
u 25296
a 9188
j 12206
u 8457
y 14027
x 32101
a 4663
n 14002
d 22926
m 11926
l 29136
m 6426
x 3948
f 12125
n 7838
f 31370
m 1531
a 19207
i 30539
h 12271
b 17046
n 707
m 24450
a 23388
p 8412
n 36
f 18036
d 9862
r 24878
h 6051
z 15702
i 3399
j 18228
q 23323
v 7648
g 14364
w 18520
s 15435
s 16592
g 26278
i 19017
h 16216
j 17509
m 27181
m 29050
k 15688
q 25317
q 12312
j 32673
d 13960
j 22808